,0,1,2,3,4,5,6,7,8,9,10,11,12,13,14
0,0,0,0,1,1,0,1,1,0,1,1,0,0,1,0
1,0,0,1,1,0,1,1,0,1,1,0,0,1,0,0
2,0,1,1,0,1,1,0,1,1,0,0,1,0,0,0
3,1,1,0,1,1,0,1,1,0,0,1,0,0,0,0
4,1,0,1,1,0,1,1,0,0,1,0,0,0,0,1
5,0,1,1,0,1,1,0,0,1,0,0,0,0,1,1
6,1,1,0,1,1,0,0,1,0,0,0,0,1,1,1
7,1,0,1,1,0,0,1,0,0,0,0,1,1,1,0
8,0,1,1,0,0,1,0,0,0,0,1,1,1,0,1
9,1,1,0,0,1,0,0,0,0,1,1,1,0,1,1
10,1,0,0,1,0,0,0,0,1,1,1,0,1,1,1
11,0,0,1,0,0,0,0,1,1,1,0,1,1,1,0
12,0,1,0,0,0,0,1,1,1,0,1,1,1,0,1
13,1,0,0,0,0,1,1,1,0,1,1,1,0,1,1
14,0,0,0,0,1,1,1,0,1,1,1,0,1,1,0
15,0,0,0,1,1,1,0,1,1,1,0,1,1,0,1
16,0,0,1,1,1,0,1,1,1,0,1,1,0,1,1
17,0,1,1,1,0,1,1,1,0,1,1,0,1,1,0
18,1,1,1,0,1,1,1,0,1,1,0,1,1,0,1
19,1,1,0,1,1,1,0,1,1,0,1,1,0,1,1
20,1,0,1,1,1,0,1,1,0,1,1,0,1,1,1
21,0,1,1,1,0,1,1,0,1,1,0,1,1,1,1
22,1,1,1,0,1,1,0,1,1,0,1,1,1,1,0
23,1,1,0,1,1,0,1,1,0,1,1,1,1,0,0
24,1,0,1,1,0,1,1,0,1,1,1,1,0,0,0
25,0,1,1,0,1,1,0,1,1,1,1,0,0,0,0
26,1,1,0,1,1,0,1,1,1,1,0,0,0,0,1
27,1,0,1,1,0,1,1,1,1,0,0,0,0,1,1
28,0,1,1,0,1,1,1,1,0,0,0,0,1,1,0
29,1,1,0,1,1,1,1,0,0,0,0,1,1,0,0
30,1,0,1,1,1,1,0,0,0,0,1,1,0,0,0
31,0,1,1,1,1,0,0,0,0,1,1,0,0,0,1
32,1,1,1,1,0,0,0,0,1,1,0,0,0,1,0
33,1,1,1,0,0,0,0,1,1,0,0,0,1,0,0
34,1,1,0,0,0,0,1,1,0,0,0,1,0,0,1
35,1,0,0,0,0,1,1,0,0,0,1,0,0,1,0
36,0,0,0,0,1,1,0,0,0,1,0,0,1,0,1
37,0,0,0,1,1,0,0,0,1,0,0,1,0,1,1
38,0,0,1,1,0,0,0,1,0,0,1,0,1,1,0
39,0,1,1,0,0,0,1,0,0,1,0,1,1,0,0
40,1,1,0,0,0,1,0,0,1,0,1,1,0,0,1
41,1,0,0,0,1,0,0,1,0,1,1,0,0,1,1
42,0,0,0,1,0,0,1,0,1,1,0,0,1,1,0
43,0,0,1,0,0,1,0,1,1,0,0,1,1,0,0
44,0,1,0,0,1,0,1,1,0,0,1,1,0,0,0
45,1,0,0,1,0,1,1,0,0,1,1,0,0,0,1
46,0,0,1,0,1,1,0,0,1,1,0,0,0,1,0
47,0,1,0,1,1,0,0,1,1,0,0,0,1,0,0
48,1,0,1,1,0,0,1,1,0,0,0,1,0,0,1
49,0,1,1,0,0,1,1,0,0,0,1,0,0,1,1
50,1,1,0,0,1,1,0,0,0,1,0,0,1,1,0
51,1,0,0,1,1,0,0,0,1,0,0,1,1,0,0
52,0,0,1,1,0,0,0,1,0,0,1,1,0,0,1
53,0,1,1,0,0,0,1,0,0,1,1,0,0,1,0
54,1,1,0,0,0,1,0,0,1,1,0,0,1,0,1
55,1,0,0,0,1,0,0,1,1,0,0,1,0,1,0
56,0,0,0,1,0,0,1,1,0,0,1,0,1,0,1
57,0,0,1,0,0,1,1,0,0,1,0,1,0,1,0
58,0,1,0,0,1,1,0,0,1,0,1,0,1,0,1
59,1,0,0,1,1,0,0,1,0,1,0,1,0,1,1
60,0,0,1,1,0,0,1,0,1,0,1,0,1,1,0
61,0,1,1,0,0,1,0,1,0,1,0,1,1,0,0
62,1,1,0,0,1,0,1,0,1,0,1,1,0,0,1
63,1,0,0,1,0,1,0,1,0,1,1,0,0,1,1
64,0,0,1,0,1,0,1,0,1,1,0,0,1,1,1
65,0,1,0,1,0,1,0,1,1,0,0,1,1,1,1
66,1,0,1,0,1,0,1,1,0,0,1,1,1,1,1
67,0,1,0,1,0,1,1,0,0,1,1,1,1,1,1
68,1,0,1,0,1,1,0,0,1,1,1,1,1,1,1
69,0,1,0,1,1,0,0,1,1,1,1,1,1,1,1
70,1,0,1,1,0,0,1,1,1,1,1,1,1,1,0
71,0,1,1,0,0,1,1,1,1,1,1,1,1,0,0
72,1,1,0,0,1,1,1,1,1,1,1,1,0,0,1
73,1,0,0,1,1,1,1,1,1,1,1,0,0,1,0
74,0,0,1,1,1,1,1,1,1,1,0,0,1,0,1
75,0,1,1,1,1,1,1,1,1,0,0,1,0,1,1
76,1,1,1,1,1,1,1,1,0,0,1,0,1,1,0
